…
```r
bikes2 <- stations %>%
  group_by(ID) %>%
  summarise(n = n())


# A tibble: 44,073 × 2
# ID     n
# <chr> <int>
#  1  116-116    20
# 2  116-127    10
# 3  116-128     1
# 4  116-147     4
# 5  116-151     4
# 6  116-153    13
# 7  116-157     1
# 8  116-160     3
# 9  116-167     1
# 10 116-168    40
# ... with 44,063 more rows
…
